1609459200,-33.7
1609545600,-33.7
1609632000,-34.0
1609718400,-34.0
1609804800,-33.9
1609891200,-33.8
1609977600,-33.7
1610064000,-33.9
1610150400,-33.9
1610236800,-34.1
1610323200,-34.1
1610409600,-33.9
1610496000,-33.8
1610582400,-33.7
1610668800,-33.8
1610755200,-33.8
1610841600,-34.0
1610928000,-33.9
1611014400,-33.7
1611100800,-33.5
1611187200,-33.4
1611273600,-33.5
1611360000,-33.5
1611446400,-33.7
1611532800,-33.6
1611619200,-33.4
1611705600,-33.3
1611792000,-33.2
1611878400,-33.3
1611964800,-33.3
1612051200,-33.6
1612137600,-33.5
1612224000,-33.3
1612310400,-33.2
1612396800,-33.2
1612483200,-33.3
1612569600,-33.3
1612656000,-33.5
1612742400,-33.4
1612828800,-33.3
1612915200,-33.1
1613001600,-33.1
1613088000,-33.1
1613174400,-33.1
1613260800,-33.3
1613347200,-33.1
1613433600,-32.9
1613520000,-32.7
1613606400,-32.5
1613692800,-32.4
1613779200,-32.3
1613865600,-32.4
1613952000,-32.1
1614038400,-31.7
1614124800,-31.3
1614211200,-31.0
1614297600,-30.9
1614384000,-30.6
1614470400,-30.5
1614556800,-30.1
1614643200,-29.6
1614729600,-29.1
1614816000,-28.7
1614902400,-28.4
1614988800,-28.0
1615075200,-27.8
1615161600,-27.3
1615248000,-26.7
1615334400,-26.2
1615420800,-25.7
1615507200,-25.4
1615593600,-25.0
1615680000,-24.8
1615766400,-24.3
1615852800,-23.7
1615939200,-23.2
1616025600,-22.8
1616112000,-22.5
1616198400,-22.2
1616284800,-22.1
1616371200,-21.6
1616457600,-21.1
1616544000,-20.7
1616630400,-20.3
1616716800,-20.1
1616803200,-19.9
1616889600,-19.8
1616976000,-19.5
1617062400,-19.0
1617148800,-18.6
1617235200,-18.3
1617321600,-18.2
1617408000,-17.9
1617494400,-17.9
1617580800,-17.5
1617667200,-17.0
1617753600,-16.6
1617840000,-16.2
1617926400,-16.0
1618012800,-15.7
1618099200,-15.6
1618185600,-15.1
1618272000,-14.6
1618358400,-14.0
1618444800,-13.6
1618531200,-13.3
1618617600,-12.8
1618704000,-12.6
1618790400,-12.1
1618876800,-11.5
1618963200,-10.9
1619049600,-10.3
1619136000,-9.9
1619222400,-9.5
1619308800,-9.2
1619395200,-8.7
1619481600,-8.0
1619568000,-7.4
1619654400,-6.9
1619740800,-6.6
1619827200,-6.1
1619913600,-6.0
1620000000,-5.5
1620086400,-4.9
1620172800,-4.3
1620259200,-3.9
1620345600,-3.6
1620432000,-3.3
1620518400,-3.1
1620604800,-2.7
1620691200,-2.2
1620777600,-1.7
1620864000,-1.3
1620950400,-1.1
1621036800,-0.7
1621123200,-0.6
1621209600,-0.2
1621296000,0.3
1621382400,0.8
1621468800,1.2
1621555200,1.5
1621641600,1.9
1621728000,2.0
1621814400,2.4
1621900800,3.0
1621987200,3.5
1622073600,4.0
1622160000,4.3
1622246400,4.7
1622332800,4.8
1622419200,5.2
1622505600,5.8
1622592000,6.3
1622678400,6.7
1622764800,7.0
1622851200,7.3
1622937600,7.4
1623024000,7.8
1623110400,8.2
1623196800,8.6
1623283200,8.9
1623369600,9.1
1623456000,9.3
1623542400,9.2
1623628800,9.5
1623715200,9.8
1623801600,10.1
1623888000,10.3
1623974400,10.3
1624060800,10.4
1624147200,10.3
1624233600,10.5
1624320000,10.7
1624406400,11.0
1624492800,11.1
1624579200,11.1
1624665600,11.2
1624752000,11.0
1624838400,11.2
1624924800,11.5
1625011200,11.7
1625097600,11.9
1625184000,11.9
1625270400,12.0
1625356800,11.9
1625443200,12.1
1625529600,12.4
1625616000,12.7
1625702400,12.8
1625788800,12.9
1625875200,13.0
1625961600,12.8
1626048000,13.0
1626134400,13.2
1626220800,13.4
1626307200,13.5
1626393600,13.4
1626480000,13.5
1626566400,13.2
1626652800,13.2
1626739200,13.4
1626825600,13.4
1626912000,13.4
1626998400,13.2
1627084800,13.1
1627171200,12.7
1627257600,12.6
1627344000,12.6
1627430400,12.6
1627516800,12.5
1627603200,12.2
1627689600,12.0
1627776000,11.5
1627862400,11.4
1627948800,11.4
1628035200,11.3
1628121600,11.2
1628208000,10.9
1628294400,10.7
1628380800,10.3
1628467200,10.1
1628553600,10.1
1628640000,10.1
1628726400,10.0
1628812800,9.7
1628899200,9.5
1628985600,9.1
1629072000,9.0
1629158400,9.0
1629244800,8.9
1629331200,8.8
1629417600,8.5
1629504000,8.3
1629590400,7.8
1629676800,7.6
1629763200,7.6
1629849600,7.4
1629936000,7.2
1630022400,6.8
1630108800,6.5
1630195200,6.0
1630281600,5.7
1630368000,5.6
1630454400,5.4
1630540800,5.1
1630627200,4.6
1630713600,4.2
1630800000,3.6
1630886400,3.3
1630972800,3.1
1631059200,2.9
1631145600,2.5
1631232000,2.0
1631318400,1.7
1631404800,1.0
1631491200,0.7
1631577600,0.5
1631664000,0.3
1631750400,-0.1
1631836800,-0.6
1631923200,-0.9
1632009600,-1.6
1632096000,-1.9
1632182400,-2.1
1632268800,-2.4
1632355200,-2.7
1632441600,-3.2
1632528000,-3.7
1632614400,-4.3
1632700800,-4.7
1632787200,-5.0
1632873600,-5.3
1632960000,-5.8
1633046400,-6.4
1633132800,-6.9
1633219200,-7.7
1633305600,-8.1
1633392000,-8.5
1633478400,-8.9
1633564800,-9.5
1633651200,-10.1
1633737600,-10.7
1633824000,-11.6
1633910400,-12.1
1633996800,-12.5
1634083200,-12.9
1634169600,-13.5
1634256000,-14.1
1634342400,-14.7
1634428800,-15.5
1634515200,-16.0
1634601600,-16.3
1634688000,-16.7
1634774400,-17.1
1634860800,-17.7
1634947200,-18.2
1635033600,-18.9
1635120000,-19.3
1635206400,-19.5
1635292800,-19.8
1635379200,-20.2
1635465600,-20.7
1635552000,-21.1
1635638400,-21.7
1635724800,-22.0
1635811200,-22.2
1635897600,-22.5
1635984000,-22.8
1636070400,-23.3
1636156800,-23.7
1636243200,-24.4
1636329600,-24.7
1636416000,-25.0
1636502400,-25.3
1636588800,-25.7
1636675200,-26.2
1636761600,-26.6
1636848000,-27.3
1636934400,-27.7
1637020800,-28.0
1637107200,-28.3
1637193600,-28.7
1637280000,-29.2
1637366400,-29.7
1637452800,-30.3
1637539200,-30.7
1637625600,-30.9
1637712000,-31.1
1637798400,-31.4
1637884800,-31.8
1637971200,-32.1
1638057600,-32.6
1638144000,-32.8
1638230400,-32.9
1638316800,-32.9
1638403200,-33.1
1638489600,-33.3
1638576000,-33.4
1638662400,-33.8
1638748800,-33.8
1638835200,-33.7
1638921600,-33.6
1639008000,-33.6
1639094400,-33.7
1639180800,-33.7
1639267200,-34.0
1639353600,-33.9
1639440000,-33.7
1639526400,-33.6
1639612800,-33.5
1639699200,-33.6
1639785600,-33.5
1639872000,-33.8
1639958400,-33.7
1640044800,-33.5
1640131200,-33.4
1640217600,-33.4
1640304000,-33.5
1640390400,-33.5
1640476800,-33.8
1640563200,-33.8
1640649600,-33.6
1640736000,-33.5
1640822400,-33.5
1640908800,-33.7
